Project1_776
…
# saves data only once (not each time you knit a R Markdown)
if (!file.exists(here("data", "chocolate.RDS"))) {
    url_csv <- "https://raw.githubusercontent.com/rfordatascience/tidytuesday/master/data/2022/2022-01-18/chocolate.csv"
    chocolate <- readr::read_csv(url_csv)

    # save the file to RDS objects
    saveRDS(chocolate, file = here("data", "chocolate.RDS"))
}

##reading the rds file locally
chocolate <- readRDS(here("data", "chocolate.RDS"))
as_tibble(chocolate)

## # A tibble: 2,530 x 10
##      ref company_manufacturer company_location review_date
##    <dbl> <chr>                <chr>                  <dbl>
##  1  2454 5150                 U.S.A.                  2019
##  2  2458 5150                 U.S.A.                  2019
##  3  2454 5150                 U.S.A.                  2019
##  4  2542 5150                 U.S.A.                  2021
##  5  2546 5150                 U.S.A.                  2021
##  6  2546 5150                 U.S.A.                  2021
##  7  2542 5150                 U.S.A.                  2021
##  8   797 A. Morin             France                  2012
##  9   797 A. Morin             France                  2012
## 10  1011 A. Morin             France                  2013
## # i 2,520 more rows
## # i 6 more variables: country_of_bean_origin <chr>,
## #   specific_bean_origin_or_bar_name <chr>, cocoa_percent <chr>,
## #   ingredients <chr>, most_memorable_characteristics <chr>, rating <dbl>
…
missing_values <- sum(is.na(choc_joined_noblend$continent))

cat("Number of missing values in 'continent':", missing_values)

## Number of missing values in 'continent': 110

# Filter the rows where 'continent' is missing and select the 'country' column
countries_with_missing_continent <- choc_joined_noblend[is.na(choc_joined_noblend$continent), "country"]

# Display the corresponding countries
countries_with_missing_continent

## # A tibble: 110 x 1
## # Groups:   country [5]
##    country 
##    <chr>   
##  1 Sao Tome
##  2 Trinidad
##  3 Trinidad
##  4 Trinidad
##  5 Trinidad
##  6 Congo   
##  7 Trinidad
##  8 Trinidad
##  9 Congo   
## 10 Trinidad
## # i 100 more rows
…
Part 3- Convert wide data into long data

#start with new chocolate tibble
chocolate <- readRDS(here("data", "chocolate.RDS"))
as_tibble(chocolate)

## # A tibble: 2,530 x 10
##      ref company_manufacturer company_location review_date
##    <dbl> <chr>                <chr>                  <dbl>
##  1  2454 5150                 U.S.A.                  2019
##  2  2458 5150                 U.S.A.                  2019
##  3  2454 5150                 U.S.A.                  2019
##  4  2542 5150                 U.S.A.                  2021
##  5  2546 5150                 U.S.A.                  2021
##  6  2546 5150                 U.S.A.                  2021
##  7  2542 5150                 U.S.A.                  2021
##  8   797 A. Morin             France                  2012
##  9   797 A. Morin             France                  2012
## 10  1011 A. Morin             France                  2013
## # i 2,520 more rows
## # i 6 more variables: country_of_bean_origin <chr>,
## #   specific_bean_origin_or_bar_name <chr>, cocoa_percent <chr>,
## #   ingredients <chr>, most_memorable_characteristics <chr>, rating <dbl>
…
